first_name,last_name,email,address,phone,company
Dummy,User,dummy_1@gmail.com,Address come over here,3109974142,myselfbroker
Dummy,User,Dummy_2@gmail.com,Address come over here,3109974142,myselfbroker
Dummy,User,Dummy_3@gmail.com,Address come over here,3109974142,myselfbroker
